{
	"id": "f13f19ed-8b14-48f9-a4f2-76675f87ed0f",
	"name": "azure",
	"values": [
		{
			"key": "host",
			"value": "person-webservice-webapp.azurewebsites.net",
			"enabled": true
		},
		{
			"key": "port",
			"value": "80",
			"enabled": true
		}
	],
	"_postman_variable_scope": "environment",
	"_postman_exported_at": "2019-10-06T15:04:28.507Z",
	"_postman_exported_using": "Postman/7.8.0"
}